(footprint "Regulator_Switching_5V_1A_Traco_TSR1" (version 20221018) (generator pcbnew)
  (layer "F.Cu")
  (descr "https://www.tracopower.com/int/tsr1e-datasheet")
  (tags "regulator switching tht")
  (attr through_hole)
  (fp_text reference "REF**" (at 2.54 -3.1 unlocked) (layer "F.SilkS")
      (effects (font (size 1 1) (thickness 0.15)))
    (tstamp d7c80350-f1e2-406f-a0ac-a066d4a32f10)
  )
  (fp_text value "Regulator_Switching_5V_1A_Traco_TSR1" (at 2.54 -1.7 unlocked) (layer "F.Fab")
      (effects (font (size 1 1) (thickness 0.15)))
    (tstamp 74d3ace9-f8de-468e-88f1-83b68de85204)
  )
  (fp_text user "${REFERENCE}" (at 2.54 -3.1 unlocked) (layer "F.Fab")
      (effects (font (size 1 1) (thickness 0.15)))
    (tstamp f94b0767-9338-4a21-b61f-bc537826b7cb)
  )
  (fp_line (start -3.26 -5.45) (end -3.26 2.05)
    (stroke (width 0.12) (type default)) (layer "F.SilkS") (tstamp d77e76c0-f15a-4f11-b6b7-23a6cf45a30a))
  (fp_line (start -3.26 2.05) (end 8.34 2.05)
    (stroke (width 0.12) (type default)) (layer "F.SilkS") (tstamp af3f08ff-3860-4b8c-bc32-2c81a250c45c))
  (fp_line (start 8.34 -5.45) (end -3.26 -5.45)
    (stroke (width 0.12) (type default)) (layer "F.SilkS") (tstamp f704c545-96c7-42d9-b79b-359ea18e8bd8))
  (fp_line (start 8.34 -5.45) (end 8.34 2.05)
    (stroke (width 0.12) (type default)) (layer "F.SilkS") (tstamp e886a281-22ff-4f72-92d6-3b408eb2287a))
  (fp_rect (start -3.66 -5.8) (end 8.74 2.4)
    (stroke (width 0.05) (type default)) (fill none) (layer "F.CrtYd") (tstamp 73dccf22-594d-48fd-b0fc-b1e7b7bf4c5b))
  (fp_rect (start -3.2 -5.4) (end 8.3 2)
    (stroke (width 0.1) (type default)) (fill none) (layer "F.Fab") (tstamp 46dd2860-1720-4c68-a1b8-712cbd3ff339))
  (pad "1" thru_hole rect (at 0 0) (size 1.6 1.6) (drill 0.8) (layers "*.Cu" "*.Mask") (tstamp e84cf2e5-b551-43c5-aaba-7c10608e240c))
  (pad "2" thru_hole circle (at 2.54 0) (size 1.6 1.6) (drill 0.8) (layers "*.Cu" "*.Mask") (tstamp b5f7a38b-5e01-480c-8426-6a5ccea99ff7))
  (pad "3" thru_hole circle (at 5.08 0 90) (size 1.6 1.6) (drill 0.8) (layers "*.Cu" "*.Mask") (tstamp 5c59b4a6-9fa1-402d-9878-f5f6e70f7a47))
  (model "${AALTO_FABLAB}/AaltoFablab.3dshapes/Regulator_Switching_5V_1A_Traco_TSR1.wrl"
    (offset (xyz 0 0 0))
    (scale (xyz 1 1 1))
    (rotate (xyz 0 0 0))
  )
)
